{
  "payout_id": "abscoaoci92u9w3e",
  "payment_mode": "",
  "home_owner_id": "uscdhiu98wfu98",
  "home_owner_name": "Varhs Angelica",
  "transaction_id": "",
  "account_id": "",
  "payout_status": "pending",
  "message": "",
  "payout_detail": [
    {
      "booking_id": "udc67tr76s",
      "property_id": "dcs1224r",
      "property_name": "Casa Bonita",
      "checkin": "2020-07-04T13:06:02.425Z",
      "checkout": "2020-12-04T13:06:02.425Z",
      "billed_amount": "3500",
      "roamhome_commision": "600",
      "homeowner_payout": "2900"
    },
    {
      "booking_id": "ihdcio87878cay",
      "property_id": "aasaajcakjn2e",
      "property_name": "Casa Abuela",
      "checkin": "2020-05-04T13:06:02.425Z",
      "checkout": "2020-12-06T13:06:02.425Z",
      "billed_amount": "76890",
      "roamhome_commision": "16890",
      "homeowner_payout": "60000"
    }
  ],
  "payout_amount": "62900",
  "payout_from": "2020-03-04T13:06:02.425Z",
  "payout_to": "2020-10-04T13:06:02.425Z",
  "added_by": "noelsasi",
  "timestamp": ""
}